{
  "project_info": {
    "project_number": "801990248183",
    "project_id": "maddcog-92b03",
    "storage_bucket": "maddcog-92b03.appspot.com"
  },
  "client": [
    {
      "client_info": {
        "mobilesdk_app_id": "1:801990248183:android:6aad8dfc982430633b35f2",
        "android_client_info": {
          "package_name": "com.maddcog.android"
        }
      },
      "oauth_client": [
        {
          "client_id": "801990248183-f54kpfsnppcqcv2qaeks5etsnqm7c67g.apps.googleusercontent.com",
          "client_type": 3
        }
      ],
      "api_key": [
        {
          "current_key": "AIzaSyA1fDjMKuVNpZccq-aNhtBF0YHYQb3r8SM"
        }
      ],
      "services": {
        "appinvite_service": {
          "other_platform_oauth_client": [
            {
              "client_id": "801990248183-f54kpfsnppcqcv2qaeks5etsnqm7c67g.apps.googleusercontent.com",
              "client_type": 3
            },
            {
              "client_id": "801990248183-4u1jakf2ncuku00d3arcn2jbeugniacp.apps.googleusercontent.com",
              "client_type": 2,
              "ios_info": {
                "bundle_id": "com.maddcog.maddcog"
              }
            }
          ]
        }
      }
    }
  ],
  "configuration_version": "1"
}