{
    "UserAgent": "aws-amplify-cli/2.0",
    "Version": "1.0",
    "auth": {
        "plugins": {
            "awsCognitoAuthPlugin": {
                "UserAgent": "aws-amplify-cli/0.1.0",
                "Version": "0.1.0",
                "IdentityManager": {
                    "Default": {}
                },
                "CredentialsProvider": {
                    "CognitoIdentity": {
                        "Default": {
                            "PoolId": "us-west-2:acd00e8e-79df-4a34-8cfa-b43388f701e0",
                            "Region": "us-west-2"
                        }
                    }
                },
                "CognitoUserPool": {
                    "Default": {
                        "PoolId": "us-west-2_NE6aDTncl",
                        "AppClientId": "6974ne8art9h34gspopj9s8a5q",
                        "Region": "us-west-2"
                    }
                },
                "Auth": {
                    "Default": {
                        "OAuth": {
                            "WebDomain": "develop-auth.maddcog.io",
                            "AppClientId": "6974ne8art9h34gspopj9s8a5q",
                            "SignInRedirectURI": "maddcog://auth/signin",
                            "SignOutRedirectURI": "maddcog://auth/signout",
                            "Scopes": [
                                "aws.cognito.signin.user.admin",
                                "email",
                                "openid",
                                "profile"
                            ]
                        },
                        "authenticationFlowType": "USER_SRP_AUTH",
                        "socialProviders": [
                            "GOOGLE"
                        ],
                        "usernameAttributes": [
                            "EMAIL"
                        ],
                        "signupAttributes": [
                            "NAME",
                            "EMAIL"
                        ],
                        "passwordProtectionSettings": {
                            "passwordPolicyMinLength": 8,
                            "passwordPolicyCharacters": [
                                "REQUIRES_LOWERCASE",
                                "REQUIRES_UPPERCASE",
                                "REQUIRES_NUMBERS"
                            ]
                        },
                        "mfaConfiguration": "OFF",
                        "mfaTypes": [],
                        "verificationMechanisms": []
                    }
                }
            }
        }
    }
}
